<svg width="21" height="20" viewBox="0 0 21 20" fill="none" xmlns="http://www.w3.org/2000/svg">
<path d="M18.5 0H1.5C0.666667 0 0 0.666667 0 1.44444V18.5556C0 19.3333 0.666667 20 1.5 20H18.5556C19.3889 20 20.0556 19.3333 20.0556 18.5556V1.44444C20 0.666667 19.3333 0 18.5 0Z" fill="#0077B5"/>
<path d="M0.222222 4.72222H3.16667V14.2778H0.222222V4.72222ZM1.72222 0C2.66667 0 3.44444 0.777778 3.44444 1.72222C3.44444 2.66667 2.66667 3.44444 1.72222 3.44444C0.777778 3.44444 5.29819e-08 2.66667 5.29819e-08 1.72222C5.29819e-08 0.722223 0.777778 0 1.72222 0Z" transform="translate(2.72222 2.77783)" fill="white"/>
<path d="M0 0.277778H2.83333V1.55556H2.88889C3.27778 0.777778 4.27778 0 5.72222 0C8.72222 0 9.27778 2 9.27778 4.55556V9.77778H6.33333V5.11111C6.33333 4 6.33333 2.55556 4.77778 2.55556C3.22222 2.55556 3 3.77778 3 5V9.72222H0V0.277778Z" transform="translate(7.77778 7.22217)" fill="white"/>
</svg>
