<svg width="151" height="29" viewBox="0 0 151 29" fill="none" xmlns="http://www.w3.org/2000/svg">
<g id="Group 2">
<path id="Vector" d="M85.1686 21.9754C84.865 23.6842 84.5984 25.2977 84.2711 26.8991C84.2256 27.1227 83.8763 27.4416 83.6655 27.4433C82.0357 27.4572 80.3875 27.5404 78.7797 27.3272C77.3558 27.1383 76.325 26.192 75.8644 24.5941C74.7543 26.0967 73.4418 27.1782 71.7328 27.634C68.1865 28.5803 64.8377 26.7952 63.5876 23.2596C61.5732 17.5594 64.1055 10.1209 70.6193 8.24051C73.0926 7.52647 75.5726 7.07413 77.813 8.96322C77.9952 7.99614 78.1707 7.43462 78.368 5.70151C77.5802 5.70151 76.8969 5.70151 76.1546 5.70151C76.4616 5.70151 76.7248 2.66857 77.0622 1.06718C77.1129 0.831481 77.5144 0.661637 77.7556 0.659904C80.7536 0.621775 83.7532 0.711897 86.9249 0.711897C86.6651 2.1833 86.4356 3.60965 86.1758 4.9892C85.2446 9.93549 84.3032 14.8974 83.3669 19.8419C83.0632 21.4433 83.4495 21.9494 85.1686 21.9754ZM74.2448 14.2613C72.7416 14.3376 71.6923 15.1643 71.0478 16.4918C70.3831 17.8627 70.2026 19.296 71.0782 20.6756C71.5455 21.4104 72.2406 21.6548 73.0689 21.4953C75.8273 20.965 77.0656 17.9944 76.2592 15.6513C75.9471 14.7379 75.2689 14.1937 74.2448 14.2613ZM38.2713 13.6357C38.5514 13.653 38.7235 13.6703 38.8938 13.6755C40.4105 13.7137 40.5185 13.8627 40.2199 15.3636C39.9128 16.9043 39.6277 18.8835 39.3359 20.4277C38.8736 22.8749 38.4147 24.7674 37.9474 28.2336C40.5134 28.2336 42.9732 28.2336 45.4464 28.2336C45.8429 24.7674 46.1398 23.705 46.6325 21.7362C47.0593 20.0239 47.5604 18.0776 48.3229 16.5074C48.6637 15.8055 49.6658 15.166 50.4722 14.9112C51.6583 14.5369 52.2589 15.14 52.0767 16.4034C51.7831 18.4537 51.3327 20.4572 51.1471 22.5161C50.9261 24.9806 51.8961 26.5785 53.8093 27.1591C55.7444 27.7449 57.725 27.582 59.7056 27.4139C60.0498 25.5733 60.3754 23.8281 60.701 22.0863C58.7963 21.7431 58.6951 21.6704 58.9633 19.7518C59.2147 17.9494 59.6348 16.1729 59.9249 14.3757C60.4564 11.0845 58.7423 8.37223 55.7612 7.89909C53.6102 7.55767 51.5942 8.00481 49.8953 9.50741C49.3605 9.98055 48.8645 10.5022 48.2909 11.0603C48.2909 8.98228 47.8995 8.32717 46.5026 8.29424C44.1322 8.23705 41.7585 8.27864 39.2498 8.27864C38.9175 10.0984 38.6003 11.8384 38.2713 13.6357ZM31.2834 9.00135C35.3628 10.9632 36.8626 15.6894 35.0962 20.3792C32.6061 26.9945 23.6359 30.0534 17.7835 26.2839C14.5696 24.2146 13.2537 20.3497 14.3857 16.3047C15.8096 11.218 20.4912 7.83843 26.1514 7.81417C26.1784 7.71711 29.7162 8.24918 31.2834 9.00135ZM28.1674 17.1071C28.1978 14.8506 26.7098 13.6894 24.6026 14.3254C22.5798 14.9355 21.1289 17.6443 21.7295 19.7241C22.0248 20.7466 22.6996 21.3307 23.7456 21.4537C26.207 21.7414 28.1303 19.8558 28.1674 17.1071ZM95.0465 19.5681C95.114 21.3012 96.2966 22.1054 98.1625 21.7813C99.5172 21.5456 100.828 20.8957 102.149 20.4797C102.505 20.3671 102.832 20.0915 103.269 19.8818C103.87 21.6548 104.462 23.3203 105.004 25.036C105.063 25.2215 104.897 25.5941 104.722 25.7068C101.052 28.0846 95.0414 28.9321 91.1072 26.2926C88.17 24.322 87.237 21.2891 87.5221 17.8835C88.1177 10.7604 94.9841 6.13652 101.631 8.28037C106.372 9.80897 107.401 14.5265 106.034 18.53C105.948 18.7813 105.395 19.2717 105.056 19.2769C102.124 19.3133 99.1916 19.5681 96.2595 19.5681C95.8782 19.5681 95.4986 19.5681 95.0465 19.5681ZM95.7837 16.1019C96.9647 16.1019 98.0697 16.1019 99.1596 16.1019C99.5425 14.3688 99.2254 13.7189 98.3683 13.5386C97.1418 13.2787 96.1262 14.3688 95.7837 16.1019ZM10.136 12.6357C11.4046 12.6357 12.5164 12.6357 13.6856 12.6357C14.0145 12.6357 14.3334 10.9026 14.6708 7.43635C13.4595 7.43635 12.3511 7.43635 11.101 7.43635C11.6307 5.70324 13.8138 6.22664 15.344 5.82803C15.71 3.92508 16.0812 2.20064 16.4709 0.181566C13.4679 -0.0281398 10.7129 -0.314102 8.10471 0.990927C5.36659 2.36008 4.07935 5.70324 3.56817 7.43635C2.73981 7.43635 2.05148 7.43635 1.3311 7.43635C0.995375 10.9026 0.673143 12.6357 0.330667 12.6357C1.13878 12.6357 1.82373 12.6357 2.57448 12.6357C1.70732 17.835 0.860409 23.0343 0 28.2336C2.54748 28.2336 4.97856 28.2336 7.47375 28.2336C8.37296 23.0343 9.25024 17.835 10.136 12.6357Z" fill="#311B92"/>
<g id="Vector_2" transform="translate(106.596 7.43459)">
<path d="M39.648 13.8665H37.4953C36.6737 13.8665 35.8588 13.7296 35.4826 12.9792L31.8031 5.97918V6.04157L29.5896 1.36738C29.2134 0.616945 28.52 0.00342534 27.6984 0.00342534H18.7873C18.1816 0.00342534 17.603 0.433236 17.1879 0.885577L12.8724 5.68282L16.3866 10.1196L19.56 6.28247C19.975 5.83013 20.5536 5.20101 21.1593 5.20101H24.4272C25.2538 5.20101 26.0113 6.07103 26.3859 6.8284L27.9683 10.227L24.8557 13.7244C24.4407 14.1768 23.862 14.4835 23.258 14.4835L18.1513 14.5095C17.3229 14.5095 16.5671 14.0451 16.1926 13.286L12.6109 6.0485L10.4008 1.40551C10.0263 0.648141 9.2688 0.00169236 8.44214 0.00169236H5.02918C4.67152 0.00169236 4.36447 0.0398208 4.2953 0.400307L3.32354 5.20101H5.07136C5.89803 5.20101 6.65551 6.07103 7.03005 6.8284L8.61253 10.227L5.49987 13.3917C5.08485 13.8457 4.50619 13.8665 3.90053 13.8665H1.77481C1.37834 13.8665 1.03755 14.8007 0.959947 15.1993L0 20.799H6.27255C6.87821 20.799 7.45688 20.2288 7.8719 19.7747L11.2545 15.9255L12.8201 19.0173C13.1946 19.7747 13.9521 20.2132 14.7788 20.2132L25.6284 20.1906C26.234 20.1906 26.8127 19.9238 27.2277 19.4714L30.6103 15.773L32.1776 19.253C32.5521 20.0104 33.3096 20.7972 34.1363 20.7972H39.6092L40.4966 15.5702C40.5995 15.0225 40.1912 13.8665 39.648 13.8665Z" fill="#00B0FF"/>
<path d="M38.1448 0.00173298C37.5391 0.00173298 36.9605 0.431544 36.5454 0.883885L32.2299 5.68112L35.653 10.2167L38.9175 6.28078C39.3325 5.82844 39.9112 5.19932 40.5168 5.19932H41.8108C42.187 5.19932 42.5093 5.14733 42.5835 4.76951L43.5502 0L38.1448 0.00173298Z" fill="#00B0FF"/>
</g>
</g>
</svg>
