<svg width="52" height="52" viewBox="0 0 52 52" fill="none" xmlns="http://www.w3.org/2000/svg">
<path d="M6.56626 -5.90559e-07L9.76884e-07 7.41119H3.28313V29.6448L9.84939 34.5855V7.41119H13.1325L6.56626 -5.90559e-07Z" transform="translate(36.3008 13.9989)" fill="#00B0FF"/>
<path d="M-1.56552e-09 7.41119H3.28313V28.8213L9.84939 23.8805V7.41119H13.1325L6.56626 -5.90559e-07L-1.56552e-09 7.41119Z" transform="translate(1.82794 19.7632)" fill="#00B0FF"/>
<path d="M40.7863 43.6799C38.3289 41.8987 35.6228 40.5952 32.7739 39.7635L31.1897 24.6603V16.4668C35.0515 16.3853 38.5078 14.0541 40.0345 10.4794L42.4148 4.90703C42.5921 4.49612 42.6807 4.05968 42.6807 3.61007V3.29386C42.6807 1.4773 41.2082 -1.57063e-09 39.3976 -1.57063e-09C38.0679 -1.57063e-09 36.8786 0.795467 36.3672 2.02655L34.1577 7.34696C33.5175 8.88684 32.0302 9.88158 30.369 9.88158H29.105C29.888 9.00624 30.369 7.85421 30.369 6.58772V4.94079C30.369 2.21595 28.1602 -1.57063e-09 25.4443 -1.57063e-09C22.7283 -1.57063e-09 20.5196 2.21595 20.5196 4.94079V6.58772C20.5196 7.85421 21.0005 9.00624 21.7836 9.88158H20.5196C18.8583 9.88158 17.371 8.88684 16.7317 7.34778L14.5221 2.02737C14.0099 0.795467 12.8206 -1.57063e-09 11.491 -1.57063e-09C9.68031 -1.57063e-09 8.20783 1.4773 8.20783 3.29386V3.61007C8.20783 4.05886 8.29647 4.49612 8.47294 4.90785L10.8532 10.4802C12.3799 14.0541 15.8362 16.3861 19.698 16.4677V24.6611L18.1139 39.7643C15.2649 40.596 12.5588 41.9004 10.1014 43.6807L2.19641 49.4079H-1.56552e-09V51.0549H50.8885V49.4079H48.6921L40.7863 43.6799ZM37.8816 2.66062C38.1377 2.04466 38.7319 1.64693 39.3976 1.64693C40.3029 1.64693 41.0391 2.38558 41.0391 3.29386V3.61007C41.0391 3.83488 40.994 4.0531 40.907 4.25896L39.2597 8.11607L36.1374 6.86276L37.8816 2.66062ZM22.1611 6.58772V4.94079C22.1611 3.12423 23.6336 1.64693 25.4443 1.64693C27.2549 1.64693 28.7274 3.12423 28.7274 4.94079V6.58772C28.7274 8.40429 27.2549 9.88158 25.4443 9.88158C23.6336 9.88158 22.1611 8.40429 22.1611 6.58772ZM9.98154 4.25896C9.89454 4.0531 9.84939 3.83488 9.84939 3.61007V3.29386C9.84939 2.38558 10.5856 1.64693 11.491 1.64693C12.1566 1.64693 12.7509 2.04466 13.0069 2.66062L14.7519 6.86276L11.6297 8.11607L9.98154 4.25896ZM12.3626 9.83135L12.2764 9.6296L15.4135 8.37053C16.3886 10.2974 18.3396 11.5285 20.5196 11.5285H30.369C32.549 11.5285 34.5 10.2974 35.475 8.37135L38.6121 9.63043L38.5259 9.83218C37.2307 12.8634 34.2701 14.8224 30.9821 14.8224H29.5482V21.4101H21.3371L21.3403 14.8224H19.9064C16.6184 14.8224 13.6578 12.8634 12.3626 9.83135ZM21.3354 24.7896L21.3362 23.057H29.5482V24.704L31.0781 39.3254C30.0209 39.0932 28.9482 38.9236 27.8615 38.8239L27.0333 26.3509H23.856L23.0271 38.8247C21.9403 38.9244 20.8676 39.094 19.8112 39.3262L21.3354 24.7896ZM26.2101 38.7325C25.9548 38.7251 25.7012 38.7029 25.4443 38.7029C25.1874 38.7029 24.9337 38.7251 24.6785 38.7325L25.3917 27.9978H25.4976L26.2101 38.7325ZM11.0633 45.0156C15.2748 41.963 20.2479 40.3498 25.4443 40.3498C30.6406 40.3498 35.6138 41.963 39.8252 45.0156L45.8875 49.4079H5.00103L11.0633 45.0156Z" transform="translate(0.18631)" fill="#333333"/>
<path d="M1.64157 0H0V1.64693H1.64157V0Z" transform="translate(38.7631 38.7029)" fill="#333333"/>
<path d="M1.64157 0H0V8.23465H1.64157V0Z" transform="translate(38.7631 28.8213)" fill="#333333"/>
<path d="M12.4981 9.47397H16.7883L8.39415 1.00521e-07L0 9.47397H4.29023V14.4148H5.9318V7.82704H3.65577L8.39415 2.47863L13.1325 7.82704H10.8565V16.0617H12.4981V9.47397Z" transform="translate(34.4729 12.7596)" fill="#333333"/>
<path d="M1.64157 0H0V8.23465H1.64157V0Z" transform="translate(4.29022 37.0559)" fill="#333333"/>
<path d="M4.29023 16.8852H5.9318V7.82704H3.65577L8.39415 2.47863L13.1325 7.82704H10.8565V18.5321H12.4981V9.47397H16.7883L8.39415 1.00521e-07L0 9.47397H4.29023V16.8852Z" transform="translate(0 18.5239)" fill="#333333"/>
<path d="M1.64157 0H0V1.64693H1.64157V0Z" transform="translate(10.8565 38.7029)" fill="#333333"/>
<path d="M1.64157 0H0V14.8224H1.64157V0Z" transform="translate(45.3294 30.4682)" fill="#333333"/>
<path d="M1.64156 0H0V1.64693H1.64156V0Z" transform="translate(14.9604 45.2906)" fill="#333333"/>
<path d="M1.64157 0H0V1.64693H1.64157V0Z" transform="translate(24.8098 41.9967)" fill="#333333"/>
<path d="M1.64157 0H0V1.64693H1.64157V0Z" transform="translate(27.2721 45.2906)" fill="#333333"/>
<path d="M1.64157 0H0V1.64693H1.64157V0Z" transform="translate(33.8384 43.6437)" fill="#333333"/>
<path d="M1.64157 0H0V1.64693H1.64157V0Z" transform="translate(37.1215 46.9375)" fill="#333333"/>
<path d="M1.64156 0H0V1.64693H1.64156V0Z" transform="translate(19.0643 46.9375)" fill="#333333"/>
</svg>
